<?xml version="1.0" encoding="utf-8"?>
<!-- Generator: Adobe Illustrator 21.1.0, SVG Export Plug-In . SVG Version: 6.00 Build 0)  -->
<svg version="1.1" id="Layer_1" xmlns="http://www.w3.org/2000/svg" xmlns:xlink="http://www.w3.org/1999/xlink" x="0px" y="0px"
	 viewBox="0 0 1024 1024" style="enable-background:new 0 0 1024 1024;" xml:space="preserve">
<style type="text/css">
	.st0{fill:#FFFFFF;}
	.st1{fill:#FFFFFF;stroke:#FFFFFF;stroke-width:12;stroke-linejoin:round;stroke-miterlimit:10;}
	.st2{font-family:'MyriadPro-Regular';}
	.st3{font-size:100px;}
</style>
<g>
	<path class="st0" d="M669.4,15.8v314.8H354.6V15.8H669.4 M681.4,3.8H342.6v338.8h338.8V3.8L681.4,3.8z"/>
</g>
<line class="st1" x1="674.4" y1="335.6" x2="350.7" y2="11.9"/>
<text transform="matrix(1 0 0 1 356 320)" class="st0 st2 st3">17</text>
<g>
	<rect x="9.8" y="9.8" class="st0" width="326.8" height="326.8"/>
	<path class="st0" d="M330.6,15.8v314.8H15.8V15.8H330.6 M342.6,3.8H3.8v338.8h338.8V3.8L342.6,3.8z"/>
</g>
<g>
	<path class="st0" d="M330.6,354.6v314.8H15.8V354.6H330.6 M342.6,342.6H3.8v338.8h338.8V342.6L342.6,342.6z"/>
</g>
<line class="st1" x1="334.5" y1="674.4" x2="10.8" y2="350.7"/>
<text transform="matrix(1 0 0 1 224.6246 439)" class="st0 st2 st3">14</text>
<g>
	<path class="st0" d="M330.6,693.4v314.8H15.8V693.4H330.6 M342.6,681.4H3.8v338.8h338.8V681.4L342.6,681.4z"/>
</g>
<line class="st1" x1="334.5" y1="1013.2" x2="10.8" y2="689.5"/>
<text transform="matrix(1 0 0 1 224.6246 771.7918)" class="st0 st2 st3">26</text>
<g>
	<path class="st0" d="M1008.2,15.8v314.8H693.4V15.8H1008.2 M1020.2,3.8H681.4v338.8h338.8V3.8L1020.2,3.8z"/>
</g>
<line class="st1" x1="1013.2" y1="335.6" x2="689.5" y2="11.9"/>
<text transform="matrix(1 0 0 1 700.7918 320.0001)" class="st0 st2 st3">4</text>
<g>
	<path class="st0" d="M669.4,354.6v314.8H354.6V354.6H669.4 M681.4,342.6H342.6v338.8h338.8V342.6L681.4,342.6z"/>
</g>
<g>
	<path class="st0" d="M669.4,693.4v314.8H354.6V693.4H669.4 M681.4,681.4H342.6v338.8h338.8V681.4L681.4,681.4z"/>
</g>
<g>
	<path class="st0" d="M1008.2,354.6v314.8H693.4V354.6H1008.2 M1020.2,342.6H681.4v338.8h338.8V342.6L1020.2,342.6z"/>
</g>
<g>
	<path class="st0" d="M1008.2,693.4v314.8H693.4V693.4H1008.2 M1020.2,681.4H681.4v338.8h338.8V681.4L1020.2,681.4z"/>
</g>
</svg>
